OFF
1984 960 0

-0.83147 -0.55557 0
-0.92388 -0.382683 0
-0.906127 -0.382683 -0.18024
-0.815493 -0.55557 -0.162212
-0.707107 0.707107 0
-0.55557 0.83147 0
-0.544895 0.83147 -0.108386
-0.69352 0.707107 -0.13795
-0.707107 -0.707107 0
-0.83147 -0.55557 0
-0.815493 -0.55557 -0.162212
-0.69352 -0.707107 -0.13795
-0.83147 0.55557 0
-0.707107 0.707107 0
-0.69352 0.707107 -0.13795
-0.815493 0.55557 -0.162212
-0.55557 -0.83147 0
-0.707107 -0.707107 0
-0.69352 -0.707107 -0.13795
-0.544895 -0.83147 -0.108386
-0.92388 0.382683 0
-0.83147 0.55557 0
-0.815493 0.55557 -0.162212
-0.906127 0.382683 -0.18024
-0.382683 -0.92388 0
-0.55557 -0.83147 0
-0.544895 -0.83147 -0.108386
-0.37533 -0.92388 -0.074658
-0.980785 0.19509 0
-0.92388 0.382683 0
-0.906127 0.382683 -0.18024
-0.96194 0.19509 -0.191342
-0.19509 -0.980785 0
-0.382683 -0.92388 0
-0.37533 -0.92388 -0.074658
-0.191341 -0.980785 -0.03806
-1 0 0
-0.980785 0.19509 0
-0.96194 0.19509 -0.191342
-0.980785 0 -0.19509
-0.980785 -0.19509 0
-1 0 0
-0.980785 0 -0.19509
-0.96194 -0.19509 -0.191342
-0.382683 0.92388 0
-0.19509 0.980785 0
-0.191342 0.980785 -0.03806
-0.37533 0.92388 -0.074658
-0.92388 -0.382683 0
-0.980785 -0.19509 0
-0.96194 -0.19509 -0.191342
-0.906127 -0.382683 -0.18024
-0.55557 0.83147 0
-0.382683 0.92388 0
-0.37533 0.92388 -0.074658
-0.544895 0.83147 -0.108386
-0.37533 0.92388 -0.074658
-0.191342 0.980785 -0.03806
-0.18024 0.980785 -0.074658
-0.353553 0.92388 -0.146447
-0.906127 -0.382683 -0.18024
-0.96194 -0.19509 -0.191342
-0.906127 -0.19509 -0.37533
-0.853553 -0.382683 -0.353554
-0.544895 0.83147 -0.108386
-0.37533 0.92388 -0.074658
-0.353553 0.92388 -0.146447
-0.51328 0.83147 -0.212608
-0.815493 -0.55557 -0.162212
-0.906127 -0.382683 -0.18024
-0.853553 -0.382683 -0.353554
-0.768178 -0.55557 -0.31819
-0.69352 0.707107 -0.13795
-0.544895 0.83147 -0.108386
-0.51328 0.83147 -0.212608
-0.653281 0.707107 -0.270598
-0.69352 -0.707107 -0.13795
-0.815493 -0.55557 -0.162212
-0.768178 -0.55557 -0.31819
-0.653281 -0.707107 -0.270598
-0.815493 0.55557 -0.162212
-0.69352 0.707107 -0.13795
-0.653281 0.707107 -0.270598
-0.768178 0.55557 -0.31819
-0.544895 -0.83147 -0.108386
-0.69352 -0.707107 -0.13795
-0.653281 -0.707107 -0.270598
-0.51328 -0.83147 -0.212608
-0.906127 0.382683 -0.18024
-0.815493 0.55557 -0.162212
-0.768178 0.55557 -0.31819
-0.853553 0.382683 -0.353553
-0.37533 -0.92388 -0.074658
-0.544895 -0.83147 -0.108386
-0.51328 -0.83147 -0.212608
-0.353553 -0.92388 -0.146447
-0.96194 0.19509 -0.191342
-0.906127 0.382683 -0.18024
-0.853553 0.382683 -0.353553
-0.906127 0.19509 -0.37533
-0.191341 -0.980785 -0.03806
-0.37533 -0.92388 -0.074658
-0.353553 -0.92388 -0.146447
-0.18024 -0.980785 -0.074658
-0.980785 0 -0.19509
-0.96194 0.19509 -0.191342
-0.906127 0.19509 -0.37533
-0.923879 0 -0.382684
-0.96194 -0.19509 -0.191342
-0.980785 0 -0.19509
-0.923879 0 -0.382684
-0.906127 -0.19509 -0.37533
-0.853553 0.382683 -0.353553
-0.768178 0.55557 -0.31819
-0.691342 0.55557 -0.46194
-0.768178 0.382683 -0.51328
-0.353553 -0.92388 -0.146447
-0.51328 -0.83147 -0.212608
-0.46194 -0.83147 -0.308658
-0.318189 -0.92388 -0.212608
-0.906127 0.19509 -0.37533
-0.853553 0.382683 -0.353553
-0.768178 0.382683 -0.51328
-0.815493 0.19509 -0.544895
-0.18024 -0.980785 -0.074658
-0.353553 -0.92388 -0.146447
-0.318189 -0.92388 -0.212608
-0.162211 -0.980785 -0.108386
-0.923879 0 -0.382684
-0.906127 0.19509 -0.37533
-0.815493 0.19509 -0.544895
-0.831469 0 -0.55557
-0.906127 -0.19509 -0.37533
-0.923879 0 -0.382684
-0.831469 0 -0.55557
-0.815493 -0.19509 -0.544895
-0.353553 0.92388 -0.146447
-0.18024 0.980785 -0.074658
-0.162212 0.980785 -0.108387
-0.31819 0.92388 -0.212608
-0.853553 -0.382683 -0.353554
-0.906127 -0.19509 -0.37533
-0.815493 -0.19509 -0.544895
-0.768178 -0.382683 -0.51328
-0.51328 0.83147 -0.212608
-0.353553 0.92388 -0.146447
-0.31819 0.92388 -0.212608
-0.46194 0.83147 -0.308658
-0.768178 -0.55557 -0.31819
-0.853553 -0.382683 -0.353554
-0.768178 -0.382683 -0.51328
-0.691342 -0.55557 -0.46194
-0.653281 0.707107 -0.270598
-0.51328 0.83147 -0.212608
-0.46194 0.83147 -0.308658
-0.587938 0.707107 -0.392848
-0.653281 -0.707107 -0.270598
-0.768178 -0.55557 -0.31819
-0.691342 -0.55557 -0.46194
-0.587938 -0.707107 -0.392848
-0.768178 0.55557 -0.31819
-0.653281 0.707107 -0.270598
-0.587938 0.707107 -0.392848
-0.691342 0.55557 -0.46194
-0.51328 -0.83147 -0.212608
-0.653281 -0.707107 -0.270598
-0.587938 -0.707107 -0.392848
-0.46194 -0.83147 -0.308658
-0.768178 -0.382683 -0.51328
-0.815493 -0.19509 -0.544895
-0.69352 -0.19509 -0.69352
-0.653281 -0.382683 -0.653282
-0.46194 0.83147 -0.308658
-0.31819 0.92388 -0.212608
-0.270598 0.92388 -0.270598
-0.392847 0.83147 -0.392848
-0.691342 -0.55557 -0.46194
-0.768178 -0.382683 -0.51328
-0.653281 -0.382683 -0.653282
-0.587938 -0.55557 -0.587938
-0.587938 0.707107 -0.392848
-0.46194 0.83147 -0.308658
-0.392847 0.83147 -0.392848
-0.5 0.707107 -0.5
-0.587938 -0.707107 -0.392848
-0.691342 -0.55557 -0.46194
-0.587938 -0.55557 -0.587938
-0.5 -0.707107 -0.5
-0.691342 0.55557 -0.46194
-0.587938 0.707107 -0.392848
-0.5 0.707107 -0.5
-0.587938 0.55557 -0.587938
-0.46194 -0.83147 -0.308658
-0.587938 -0.707107 -0.392848
-0.5 -0.707107 -0.5
-0.392847 -0.83147 -0.392848
-0.768178 0.382683 -0.51328
-0.691342 0.55557 -0.46194
-0.587938 0.55557 -0.587938
-0.653281 0.382683 -0.653282
-0.318189 -0.92388 -0.212608
-0.46194 -0.83147 -0.308658
-0.392847 -0.83147 -0.392848
-0.270598 -0.92388 -0.270598
-0.815493 0.19509 -0.544895
-0.768178 0.382683 -0.51328
-0.653281 0.382683 -0.653282
-0.69352 0.19509 -0.69352
-0.162211 -0.980785 -0.108386
-0.318189 -0.92388 -0.212608
-0.270598 -0.92388 -0.270598
-0.137949 -0.980785 -0.13795
-0.831469 0 -0.55557
-0.815493 0.19509 -0.544895
-0.69352 0.19509 -0.69352
-0.707107 0 -0.707107
-0.815493 -0.19509 -0.544895
-0.831469 0 -0.55557
-0.707107 0 -0.707107
-0.69352 -0.19509 -0.69352
-0.31819 0.92388 -0.212608
-0.162212 0.980785 -0.108387
-0.13795 0.980785 -0.13795
-0.270598 0.92388 -0.270598
-0.270598 -0.92388 -0.270598
-0.392847 -0.83147 -0.392848
-0.308658 -0.83147 -0.46194
-0.212607 -0.92388 -0.31819
-0.69352 0.19509 -0.69352
-0.653281 0.382683 -0.653282
-0.51328 0.382683 -0.768178
-0.544895 0.19509 -0.815493
-0.137949 -0.980785 -0.13795
-0.270598 -0.92388 -0.270598
-0.212607 -0.92388 -0.31819
-0.108386 -0.980785 -0.162212
-0.707107 0 -0.707107
-0.69352 0.19509 -0.69352
-0.544895 0.19509 -0.815493
-0.55557 0 -0.83147
-0.69352 -0.19509 -0.69352
-0.707107 0 -0.707107
-0.55557 0 -0.83147
-0.544895 -0.19509 -0.815493
-0.270598 0.92388 -0.270598
-0.13795 0.980785 -0.13795
-0.108386 0.980785 -0.162212
-0.212607 0.92388 -0.31819
-0.653281 -0.382683 -0.653282
-0.69352 -0.19509 -0.69352
-0.544895 -0.19509 -0.815493
-0.51328 -0.382683 -0.768178
-0.392847 0.83147 -0.392848
-0.270598 0.92388 -0.270598
-0.212607 0.92388 -0.31819
-0.308658 0.83147 -0.46194
-0.587938 -0.55557 -0.587938
-0.653281 -0.382683 -0.653282
-0.51328 -0.382683 -0.768178
-0.46194 -0.55557 -0.691342
-0.5 0.707107 -0.5
-0.392847 0.83147 -0.392848
-0.308658 0.83147 -0.46194
-0.392847 0.707107 -0.587938
-0.5 -0.707107 -0.5
-0.587938 -0.55557 -0.587938
-0.46194 -0.55557 -0.691342
-0.392847 -0.707107 -0.587938
-0.587938 0.55557 -0.587938
-0.5 0.707107 -0.5
-0.392847 0.707107 -0.587938
-0.46194 0.55557 -0.691342
-0.392847 -0.83147 -0.392848
-0.5 -0.707107 -0.5
-0.392847 -0.707107 -0.587938
-0.308658 -0.83147 -0.46194
-0.653281 0.382683 -0.653282
-0.587938 0.55557 -0.587938
-0.46194 0.55557 -0.691342
-0.51328 0.382683 -0.768178
-0.46194 -0.55557 -0.691342
-0.51328 -0.382683 -0.768178
-0.353553 -0.382683 -0.853554
-0.318189 -0.55557 -0.768178
-0.392847 0.707107 -0.587938
-0.308658 0.83147 -0.46194
-0.212607 0.83147 -0.51328
-0.270598 0.707107 -0.653282
-0.392847 -0.707107 -0.587938
-0.46194 -0.55557 -0.691342
-0.318189 -0.55557 -0.768178
-0.270598 -0.707107 -0.653282
-0.46194 0.55557 -0.691342
-0.392847 0.707107 -0.587938
-0.270598 0.707107 -0.653282
-0.318189 0.55557 -0.768178
-0.308658 -0.83147 -0.46194
-0.392847 -0.707107 -0.587938
-0.270598 -0.707107 -0.653282
-0.212607 -0.83147 -0.51328
-0.51328 0.382683 -0.768178
-0.46194 0.55557 -0.691342
-0.318189 0.55557 -0.768178
-0.353553 0.382683 -0.853554
-0.212607 -0.92388 -0.31819
-0.308658 -0.83147 -0.46194
-0.212607 -0.83147 -0.51328
-0.146446 -0.92388 -0.353554
-0.544895 0.19509 -0.815493
-0.51328 0.382683 -0.768178
-0.353553 0.382683 -0.853554
-0.37533 0.19509 -0.906128
-0.108386 -0.980785 -0.162212
-0.212607 -0.92388 -0.31819
-0.146446 -0.92388 -0.353554
-0.074658 -0.980785 -0.18024
-0.55557 0 -0.83147
-0.544895 0.19509 -0.815493
-0.37533 0.19509 -0.906128
-0.382683 0 -0.92388
-0.544895 -0.19509 -0.815493
-0.55557 0 -0.83147
-0.382683 0 -0.92388
-0.37533 -0.19509 -0.906128
-0.212607 0.92388 -0.31819
-0.108386 0.980785 -0.162212
-0.074658 0.980785 -0.18024
-0.146446 0.92388 -0.353554
-0.51328 -0.382683 -0.768178
-0.544895 -0.19509 -0.815493
-0.37533 -0.19509 -0.906128
-0.353553 -0.382683 -0.853554
-0.308658 0.83147 -0.46194
-0.212607 0.92388 -0.31819
-0.146446 0.92388 -0.353554
-0.212607 0.83147 -0.51328
-0.074658 -0.980785 -0.18024
-0.146446 -0.92388 -0.353554
-0.074658 -0.92388 -0.37533
-0.03806 -0.980785 -0.191342
-0.382683 0 -0.92388
-0.37533 0.19509 -0.906128
-0.191341 0.19509 -0.96194
-0.19509 0 -0.980785
-0.37533 -0.19509 -0.906128
-0.382683 0 -0.92388
-0.19509 0 -0.980785
-0.191341 -0.19509 -0.96194
-0.146446 0.92388 -0.353554
-0.074658 0.980785 -0.18024
-0.03806 0.980785 -0.191342
-0.074658 0.92388 -0.375331
-0.353553 -0.382683 -0.853554
-0.37533 -0.19509 -0.906128
-0.191341 -0.19509 -0.96194
-0.18024 -0.382683 -0.906128
-0.212607 0.83147 -0.51328
-0.146446 0.92388 -0.353554
-0.074658 0.92388 -0.375331
-0.108386 0.83147 -0.544895
-0.318189 -0.55557 -0.768178
-0.353553 -0.382683 -0.853554
-0.18024 -0.382683 -0.906128
-0.162211 -0.55557 -0.815493
-0.270598 0.707107 -0.653282
-0.212607 0.83147 -0.51328
-0.108386 0.83147 -0.544895
-0.137949 0.707107 -0.69352
-0.270598 -0.707107 -0.653282
-0.318189 -0.55557 -0.768178
-0.162211 -0.55557 -0.815493
-0.137949 -0.707107 -0.69352
-0.318189 0.55557 -0.768178
-0.270598 0.707107 -0.653282
-0.137949 0.707107 -0.69352
-0.162211 0.55557 -0.815493
-0.212607 -0.83147 -0.51328
-0.270598 -0.707107 -0.653282
-0.137949 -0.707107 -0.69352
-0.108386 -0.83147 -0.544895
-0.353553 0.382683 -0.853554
-0.318189 0.55557 -0.768178
-0.162211 0.55557 -0.815493
-0.18024 0.382683 -0.906128
-0.146446 -0.92388 -0.353554
-0.212607 -0.83147 -0.51328
-0.108386 -0.83147 -0.544895
-0.074658 -0.92388 -0.37533
-0.37533 0.19509 -0.906128
-0.353553 0.382683 -0.853554
-0.18024 0.382683 -0.906128
-0.191341 0.19509 -0.96194
-0.137949 0.707107 -0.69352
-0.108386 0.83147 -0.544895
0 0.83147 -0.55557
0 0.707107 -0.707107
-0.137949 -0.707107 -0.69352
-0.162211 -0.55557 -0.815493
0 -0.55557 -0.83147
0 -0.707107 -0.707107
-0.162211 0.55557 -0.815493
-0.137949 0.707107 -0.69352
0 0.707107 -0.707107
0 0.55557 -0.83147
-0.108386 -0.83147 -0.544895
-0.137949 -0.707107 -0.69352
0 -0.707107 -0.707107
0 -0.83147 -0.55557
-0.18024 0.382683 -0.906128
-0.162211 0.55557 -0.815493
0 0.55557 -0.83147
0 0.382683 -0.92388
-0.074658 -0.92388 -0.37533
-0.108386 -0.83147 -0.544895
0 -0.83147 -0.55557
0 -0.92388 -0.382684
-0.191341 0.19509 -0.96194
-0.18024 0.382683 -0.906128
0 0.382683 -0.92388
0 0.19509 -0.980785
-0.03806 -0.980785 -0.191342
-0.074658 -0.92388 -0.37533
0 -0.92388 -0.382684
0 -0.980785 -0.19509
-0.19509 0 -0.980785
-0.191341 0.19509 -0.96194
0 0.19509 -0.980785
0 0 -1
-0.191341 -0.19509 -0.96194
-0.19509 0 -0.980785
0 0 -1
0 -0.19509 -0.980785
-0.074658 0.92388 -0.375331
-0.03806 0.980785 -0.191342
0 0.980785 -0.195091
0 0.92388 -0.382684
-0.18024 -0.382683 -0.906128
-0.191341 -0.19509 -0.96194
0 -0.19509 -0.980785
0 -0.382683 -0.92388
-0.108386 0.83147 -0.544895
-0.074658 0.92388 -0.375331
0 0.92388 -0.382684
0 0.83147 -0.55557
-0.162211 -0.55557 -0.815493
-0.18024 -0.382683 -0.906128
0 -0.382683 -0.92388
0 -0.55557 -0.83147
0 0 -1
0 0.19509 -0.980785
0.191342 0.19509 -0.96194
0.195091 0 -0.980785
0 -0.19509 -0.980785
0 0 -1
0.195091 0 -0.980785
0.191342 -0.19509 -0.96194
0 0.92388 -0.382684
0 0.980785 -0.195091
0.038061 0.980785 -0.191342
0.074658 0.92388 -0.375331
0 -0.382683 -0.92388
0 -0.19509 -0.980785
0.191342 -0.19509 -0.96194
0.18024 -0.382683 -0.906128
0 0.83147 -0.55557
0 0.92388 -0.382684
0.074658 0.92388 -0.375331
0.108387 0.83147 -0.544895
0 -0.55557 -0.83147
0 -0.382683 -0.92388
0.18024 -0.382683 -0.906128
0.162212 -0.55557 -0.815493
0 0.707107 -0.707107
0 0.83147 -0.55557
0.108387 0.83147 -0.544895
0.13795 0.707107 -0.69352
0 -0.707107 -0.707107
0 -0.55557 -0.83147
0.162212 -0.55557 -0.815493
0.13795 -0.707107 -0.69352
0 0.55557 -0.83147
0 0.707107 -0.707107
0.13795 0.707107 -0.69352
0.162212 0.55557 -0.815493
0 -0.83147 -0.55557
0 -0.707107 -0.707107
0.13795 -0.707107 -0.69352
0.108387 -0.83147 -0.544895
0 0.382683 -0.92388
0 0.55557 -0.83147
0.162212 0.55557 -0.815493
0.18024 0.382683 -0.906128
0 -0.92388 -0.382684
0 -0.83147 -0.55557
0.108387 -0.83147 -0.544895
0.074658 -0.92388 -0.37533
0 0.19509 -0.980785
0 0.382683 -0.92388
0.18024 0.382683 -0.906128
0.191342 0.19509 -0.96194
0 -0.980785 -0.19509
0 -0.92388 -0.382684
0.074658 -0.92388 -0.37533
0.038061 -0.980785 -0.191342
0.13795 -0.707107 -0.69352
0.162212 -0.55557 -0.815493
0.31819 -0.55557 -0.768178
0.270598 -0.707107 -0.653282
0.162212 0.55557 -0.815493
0.13795 0.707107 -0.69352
0.270598 0.707107 -0.653282
0.31819 0.55557 -0.768178
0.108387 -0.83147 -0.544895
0.13795 -0.707107 -0.69352
0.270598 -0.707107 -0.653282
0.212608 -0.83147 -0.51328
0.18024 0.382683 -0.906128
0.162212 0.55557 -0.815493
0.31819 0.55557 -0.768178
0.353554 0.382683 -0.853554
0.074658 -0.92388 -0.37533
0.108387 -0.83147 -0.544895
0.212608 -0.83147 -0.51328
0.146447 -0.92388 -0.353553
0.191342 0.19509 -0.96194
0.18024 0.382683 -0.906128
0.353554 0.382683 -0.853554
0.375331 0.19509 -0.906127
0.038061 -0.980785 -0.191342
0.074658 -0.92388 -0.37533
0.146447 -0.92388 -0.353553
0.074658 -0.980785 -0.18024
0.195091 0 -0.980785
0.191342 0.19509 -0.96194
0.375331 0.19509 -0.906127
0.382684 0 -0.92388
0.191342 -0.19509 -0.96194
0.195091 0 -0.980785
0.382684 0 -0.92388
0.375331 -0.19509 -0.906127
0.074658 0.92388 -0.375331
0.038061 0.980785 -0.191342
0.074658 0.980785 -0.18024
0.146447 0.92388 -0.353554
0.18024 -0.382683 -0.906128
0.191342 -0.19509 -0.96194
0.375331 -0.19509 -0.906127
0.353554 -0.382683 -0.853554
0.108387 0.83147 -0.544895
0.074658 0.92388 -0.375331
0.146447 0.92388 -0.353554
0.212608 0.83147 -0.51328
0.162212 -0.55557 -0.815493
0.18024 -0.382683 -0.906128
0.353554 -0.382683 -0.853554
0.31819 -0.55557 -0.768178
0.13795 0.707107 -0.69352
0.108387 0.83147 -0.544895
0.212608 0.83147 -0.51328
0.270598 0.707107 -0.653282
0.375331 -0.19509 -0.906127
0.382684 0 -0.92388
0.555571 0 -0.83147
0.544895 -0.19509 -0.815493
0.146447 0.92388 -0.353554
0.074658 0.980785 -0.18024
0.108387 0.980785 -0.162212
0.212608 0.92388 -0.31819
0.353554 -0.382683 -0.853554
0.375331 -0.19509 -0.906127
0.544895 -0.19509 -0.815493
0.51328 -0.382683 -0.768178
0.212608 0.83147 -0.51328
0.146447 0.92388 -0.353554
0.212608 0.92388 -0.31819
0.308659 0.83147 -0.46194
0.31819 -0.55557 -0.768178
0.353554 -0.382683 -0.853554
0.51328 -0.382683 -0.768178
0.46194 -0.55557 -0.691342
0.270598 0.707107 -0.653282
0.212608 0.83147 -0.51328
0.308659 0.83147 -0.46194
0.392848 0.707107 -0.587938
0.270598 -0.707107 -0.653282
0.31819 -0.55557 -0.768178
0.46194 -0.55557 -0.691342
0.392848 -0.707107 -0.587938
0.31819 0.55557 -0.768178
0.270598 0.707107 -0.653282
0.392848 0.707107 -0.587938
0.46194 0.55557 -0.691342
0.212608 -0.83147 -0.51328
0.270598 -0.707107 -0.653282
0.392848 -0.707107 -0.587938
0.308659 -0.83147 -0.46194
0.353554 0.382683 -0.853554
0.31819 0.55557 -0.768178
0.46194 0.55557 -0.691342
0.51328 0.382683 -0.768178
0.146447 -0.92388 -0.353553
0.212608 -0.83147 -0.51328
0.308659 -0.83147 -0.46194
0.212608 -0.92388 -0.31819
0.375331 0.19509 -0.906127
0.353554 0.382683 -0.853554
0.51328 0.382683 -0.768178
0.544895 0.19509 -0.815493
0.074658 -0.980785 -0.18024
0.146447 -0.92388 -0.353553
0.212608 -0.92388 -0.31819
0.108387 -0.980785 -0.162212
0.382684 0 -0.92388
0.375331 0.19509 -0.906127
0.544895 0.19509 -0.815493
0.555571 0 -0.83147
0.46194 0.55557 -0.691342
0.392848 0.707107 -0.587938
0.5 0.707107 -0.5
0.587938 0.55557 -0.587938
0.308659 -0.83147 -0.46194
0.392848 -0.707107 -0.587938
0.5 -0.707107 -0.5
0.392848 -0.83147 -0.392848
0.51328 0.382683 -0.768178
0.46194 0.55557 -0.691342
0.587938 0.55557 -0.587938
0.653282 0.382683 -0.653282
0.212608 -0.92388 -0.31819
0.308659 -0.83147 -0.46194
0.392848 -0.83147 -0.392848
0.270598 -0.92388 -0.270598
0.544895 0.19509 -0.815493
0.51328 0.382683 -0.768178
0.653282 0.382683 -0.653282
0.69352 0.19509 -0.69352
0.108387 -0.980785 -0.162212
0.212608 -0.92388 -0.31819
0.270598 -0.92388 -0.270598
0.13795 -0.980785 -0.13795
0.555571 0 -0.83147
0.544895 0.19509 -0.815493
0.69352 0.19509 -0.69352
0.707107 0 -0.707107
0.544895 -0.19509 -0.815493
0.555571 0 -0.83147
0.707107 0 -0.707107
0.69352 -0.19509 -0.69352
0.212608 0.92388 -0.31819
0.108387 0.980785 -0.162212
0.13795 0.980785 -0.13795
0.270599 0.92388 -0.270598
0.51328 -0.382683 -0.768178
0.544895 -0.19509 -0.815493
0.69352 -0.19509 -0.69352
0.653282 -0.382683 -0.653282
0.308659 0.83147 -0.46194
0.212608 0.92388 -0.31819
0.270599 0.92388 -0.270598
0.392848 0.83147 -0.392848
0.46194 -0.55557 -0.691342
0.51328 -0.382683 -0.768178
0.653282 -0.382683 -0.653282
0.587938 -0.55557 -0.587938
0.392848 0.707107 -0.587938
0.308659 0.83147 -0.46194
0.392848 0.83147 -0.392848
0.5 0.707107 -0.5
0.392848 -0.707107 -0.587938
0.46194 -0.55557 -0.691342
0.587938 -0.55557 -0.587938
0.5 -0.707107 -0.5
0.69352 -0.19509 -0.69352
0.707107 0 -0.707107
0.83147 0 -0.55557
0.815493 -0.19509 -0.544895
0.270599 0.92388 -0.270598
0.13795 0.980785 -0.13795
0.162212 0.980785 -0.108386
0.31819 0.92388 -0.212608
0.653282 -0.382683 -0.653282
0.69352 -0.19509 -0.69352
0.815493 -0.19509 -0.544895
0.768178 -0.382683 -0.51328
0.392848 0.83147 -0.392848
0.270599 0.92388 -0.270598
0.31819 0.92388 -0.212608
0.46194 0.83147 -0.308658
0.587938 -0.55557 -0.587938
0.653282 -0.382683 -0.653282
0.768178 -0.382683 -0.51328
0.691342 -0.55557 -0.46194
0.5 0.707107 -0.5
0.392848 0.83147 -0.392848
0.46194 0.83147 -0.308658
0.587938 0.707107 -0.392848
0.5 -0.707107 -0.5
0.587938 -0.55557 -0.587938
0.691342 -0.55557 -0.46194
0.587938 -0.707107 -0.392848
0.587938 0.55557 -0.587938
0.5 0.707107 -0.5
0.587938 0.707107 -0.392848
0.691342 0.55557 -0.46194
0.392848 -0.83147 -0.392848
0.5 -0.707107 -0.5
0.587938 -0.707107 -0.392848
0.46194 -0.83147 -0.308658
0.653282 0.382683 -0.653282
0.587938 0.55557 -0.587938
0.691342 0.55557 -0.46194
0.768178 0.382683 -0.51328
0.270598 -0.92388 -0.270598
0.392848 -0.83147 -0.392848
0.46194 -0.83147 -0.308658
0.31819 -0.92388 -0.212608
0.69352 0.19509 -0.69352
0.653282 0.382683 -0.653282
0.768178 0.382683 -0.51328
0.815493 0.19509 -0.544895
0.13795 -0.980785 -0.13795
0.270598 -0.92388 -0.270598
0.31819 -0.92388 -0.212608
0.162212 -0.980785 -0.108386
0.707107 0 -0.707107
0.69352 0.19509 -0.69352
0.815493 0.19509 -0.544895
0.83147 0 -0.55557
0.46194 -0.83147 -0.308658
0.587938 -0.707107 -0.392848
0.653282 -0.707107 -0.270598
0.51328 -0.83147 -0.212608
0.768178 0.382683 -0.51328
0.691342 0.55557 -0.46194
0.768178 0.55557 -0.31819
0.853554 0.382683 -0.353553
0.31819 -0.92388 -0.212608
0.46194 -0.83147 -0.308658
0.51328 -0.83147 -0.212608
0.353554 -0.92388 -0.146447
0.815493 0.19509 -0.544895
0.768178 0.382683 -0.51328
0.853554 0.382683 -0.353553
0.906128 0.19509 -0.37533
0.162212 -0.980785 -0.108386
0.31819 -0.92388 -0.212608
0.353554 -0.92388 -0.146447
0.18024 -0.980785 -0.074658
0.83147 0 -0.55557
0.815493 0.19509 -0.544895
0.906128 0.19509 -0.37533
0.92388 0 -0.382683
0.815493 -0.19509 -0.544895
0.83147 0 -0.55557
0.92388 0 -0.382683
0.906128 -0.19509 -0.37533
0.31819 0.92388 -0.212608
0.162212 0.980785 -0.108386
0.18024 0.980785 -0.074658
0.353554 0.92388 -0.146447
0.768178 -0.382683 -0.51328
0.815493 -0.19509 -0.544895
0.906128 -0.19509 -0.37533
0.853554 -0.382683 -0.353553
0.46194 0.83147 -0.308658
0.31819 0.92388 -0.212608
0.353554 0.92388 -0.146447
0.51328 0.83147 -0.212608
0.691342 -0.55557 -0.46194
0.768178 -0.382683 -0.51328
0.853554 -0.382683 -0.353553
0.768178 -0.55557 -0.31819
0.587938 0.707107 -0.392848
0.46194 0.83147 -0.308658
0.51328 0.83147 -0.212608
0.653282 0.707107 -0.270598
0.587938 -0.707107 -0.392848
0.691342 -0.55557 -0.46194
0.768178 -0.55557 -0.31819
0.653282 -0.707107 -0.270598
0.691342 0.55557 -0.46194
0.587938 0.707107 -0.392848
0.653282 0.707107 -0.270598
0.768178 0.55557 -0.31819
0.853554 -0.382683 -0.353553
0.906128 -0.19509 -0.37533
0.96194 -0.19509 -0.191342
0.906128 -0.382683 -0.18024
0.51328 0.83147 -0.212608
0.353554 0.92388 -0.146447
0.375331 0.92388 -0.074658
0.544896 0.83147 -0.108386
0.768178 -0.55557 -0.31819
0.853554 -0.382683 -0.353553
0.906128 -0.382683 -0.18024
0.815493 -0.55557 -0.162212
0.653282 0.707107 -0.270598
0.51328 0.83147 -0.212608
0.544896 0.83147 -0.108386
0.69352 0.707107 -0.13795
0.653282 -0.707107 -0.270598
0.768178 -0.55557 -0.31819
0.815493 -0.55557 -0.162212
0.69352 -0.707107 -0.13795
0.768178 0.55557 -0.31819
0.653282 0.707107 -0.270598
0.69352 0.707107 -0.13795
0.815493 0.55557 -0.162212
0.51328 -0.83147 -0.212608
0.653282 -0.707107 -0.270598
0.69352 -0.707107 -0.13795
0.544895 -0.83147 -0.108386
0.853554 0.382683 -0.353553
0.768178 0.55557 -0.31819
0.815493 0.55557 -0.162212
0.906128 0.382683 -0.18024
0.353554 -0.92388 -0.146447
0.51328 -0.83147 -0.212608
0.544895 -0.83147 -0.108386
0.375331 -0.92388 -0.074658
0.906128 0.19509 -0.37533
0.853554 0.382683 -0.353553
0.906128 0.382683 -0.18024
0.96194 0.19509 -0.191342
0.18024 -0.980785 -0.074658
0.353554 -0.92388 -0.146447
0.375331 -0.92388 -0.074658
0.191342 -0.980785 -0.03806
0.92388 0 -0.382683
0.906128 0.19509 -0.37533
0.96194 0.19509 -0.191342
0.980786 0 -0.19509
0.906128 -0.19509 -0.37533
0.92388 0 -0.382683
0.980786 0 -0.19509
0.96194 -0.19509 -0.191342
0.353554 0.92388 -0.146447
0.18024 0.980785 -0.074658
0.191342 0.980785 -0.03806
0.375331 0.92388 -0.074658
0.375331 -0.92388 -0.074658
0.544895 -0.83147 -0.108386
0.55557 -0.83147 0
0.382684 -0.92388 -0
0.96194 0.19509 -0.191342
0.906128 0.382683 -0.18024
0.92388 0.382683 -0
0.980785 0.19509 0
0.191342 -0.980785 -0.03806
0.375331 -0.92388 -0.074658
0.382684 -0.92388 -0
0.195091 -0.980785 -0
0.980786 0 -0.19509
0.96194 0.19509 -0.191342
0.980785 0.19509 0
1 0 0
0.96194 -0.19509 -0.191342
0.980786 0 -0.19509
1 0 0
0.980785 -0.19509 0
0.375331 0.92388 -0.074658
0.191342 0.980785 -0.03806
0.195091 0.980785 0
0.382684 0.92388 -0
0.906128 -0.382683 -0.18024
0.96194 -0.19509 -0.191342
0.980785 -0.19509 0
0.92388 -0.382683 -0
0.544896 0.83147 -0.108386
0.375331 0.92388 -0.074658
0.382684 0.92388 -0
0.555571 0.83147 -0
0.815493 -0.55557 -0.162212
0.906128 -0.382683 -0.18024
0.92388 -0.382683 -0
0.83147 -0.55557 0
0.69352 0.707107 -0.13795
0.544896 0.83147 -0.108386
0.555571 0.83147 -0
0.707107 0.707107 0
0.69352 -0.707107 -0.13795
0.815493 -0.55557 -0.162212
0.83147 -0.55557 0
0.707107 -0.707107 0
0.815493 0.55557 -0.162212
0.69352 0.707107 -0.13795
0.707107 0.707107 0
0.83147 0.55557 0
0.544895 -0.83147 -0.108386
0.69352 -0.707107 -0.13795
0.707107 -0.707107 0
0.55557 -0.83147 0
0.906128 0.382683 -0.18024
0.815493 0.55557 -0.162212
0.83147 0.55557 0
0.92388 0.382683 -0
0.555571 0.83147 -0
0.382684 0.92388 -0
0.375331 0.92388 0.074658
0.544896 0.83147 0.108386
0.83147 -0.55557 0
0.92388 -0.382683 -0
0.906128 -0.382683 0.18024
0.815493 -0.55557 0.162212
0.707107 0.707107 0
0.555571 0.83147 -0
0.544896 0.83147 0.108386
0.69352 0.707107 0.13795
0.707107 -0.707107 0
0.83147 -0.55557 0
0.815493 -0.55557 0.162212
0.69352 -0.707107 0.13795
0.83147 0.55557 0
0.707107 0.707107 0
0.69352 0.707107 0.13795
0.815493 0.55557 0.162212
0.55557 -0.83147 0
0.707107 -0.707107 0
0.69352 -0.707107 0.13795
0.544895 -0.83147 0.108386
0.92388 0.382683 -0
0.83147 0.55557 0
0.815493 0.55557 0.162212
0.906128 0.382683 0.18024
0.382684 -0.92388 -0
0.55557 -0.83147 0
0.544895 -0.83147 0.108386
0.375331 -0.92388 0.074658
0.980785 0.19509 0
0.92388 0.382683 -0
0.906128 0.382683 0.18024
0.96194 0.19509 0.191342
0.195091 -0.980785 -0
0.382684 -0.92388 -0
0.375331 -0.92388 0.074658
0.191342 -0.980785 0.03806
1 0 0
0.980785 0.19509 0
0.96194 0.19509 0.191342
0.980786 0 0.19509
0.980785 -0.19509 0
1 0 0
0.980786 0 0.19509
0.96194 -0.19509 0.191342
0.382684 0.92388 -0
0.195091 0.980785 0
0.191342 0.980785 0.03806
0.375331 0.92388 0.074658
0.92388 -0.382683 -0
0.980785 -0.19509 0
0.96194 -0.19509 0.191342
0.906128 -0.382683 0.18024
0.96194 0.19509 0.191342
0.906128 0.382683 0.18024
0.853554 0.382683 0.353553
0.906127 0.19509 0.37533
0.191342 -0.980785 0.03806
0.375331 -0.92388 0.074658
0.353554 -0.92388 0.146447
0.18024 -0.980785 0.074658
0.980786 0 0.19509
0.96194 0.19509 0.191342
0.906127 0.19509 0.37533
0.92388 0 0.382684
0.96194 -0.19509 0.191342
0.980786 0 0.19509
0.92388 0 0.382684
0.906127 -0.19509 0.37533
0.375331 0.92388 0.074658
0.191342 0.980785 0.03806
0.18024 0.980785 0.074658
0.353554 0.92388 0.146447
0.906128 -0.382683 0.18024
0.96194 -0.19509 0.191342
0.906127 -0.19509 0.37533
0.853554 -0.382683 0.353553
0.544896 0.83147 0.108386
0.375331 0.92388 0.074658
0.353554 0.92388 0.146447
0.51328 0.83147 0.212608
0.815493 -0.55557 0.162212
0.906128 -0.382683 0.18024
0.853554 -0.382683 0.353553
0.768178 -0.55557 0.31819
0.69352 0.707107 0.13795
0.544896 0.83147 0.108386
0.51328 0.83147 0.212608
0.653282 0.707107 0.270598
0.69352 -0.707107 0.13795
0.815493 -0.55557 0.162212
0.768178 -0.55557 0.31819
0.653282 -0.707107 0.270598
0.815493 0.55557 0.162212
0.69352 0.707107 0.13795
0.653282 0.707107 0.270598
0.768178 0.55557 0.31819
0.544895 -0.83147 0.108386
0.69352 -0.707107 0.13795
0.653282 -0.707107 0.270598
0.51328 -0.83147 0.212608
0.906128 0.382683 0.18024
0.815493 0.55557 0.162212
0.768178 0.55557 0.31819
0.853554 0.382683 0.353553
0.375331 -0.92388 0.074658
0.544895 -0.83147 0.108386
0.51328 -0.83147 0.212608
0.353554 -0.92388 0.146447
0.768178 -0.55557 0.31819
0.853554 -0.382683 0.353553
0.768178 -0.382683 0.51328
0.691342 -0.55557 0.46194
0.653282 0.707107 0.270598
0.51328 0.83147 0.212608
0.46194 0.83147 0.308658
0.587938 0.707107 0.392847
0.653282 -0.707107 0.270598
0.768178 -0.55557 0.31819
0.691342 -0.55557 0.46194
0.587938 -0.707107 0.392847
0.768178 0.55557 0.31819
0.653282 0.707107 0.270598
0.587938 0.707107 0.392847
0.691342 0.55557 0.46194
0.51328 -0.83147 0.212608
0.653282 -0.707107 0.270598
0.587938 -0.707107 0.392847
0.46194 -0.83147 0.308658
0.853554 0.382683 0.353553
0.768178 0.55557 0.31819
0.691342 0.55557 0.46194
0.768178 0.382683 0.51328
0.353554 -0.92388 0.146447
0.51328 -0.83147 0.212608
0.46194 -0.83147 0.308658
0.31819 -0.92388 0.212607
0.906127 0.19509 0.37533
0.853554 0.382683 0.353553
0.768178 0.382683 0.51328
0.815493 0.19509 0.544895
0.18024 -0.980785 0.074658
0.353554 -0.92388 0.146447
0.31819 -0.92388 0.212607
0.162212 -0.980785 0.108386
0.92388 0 0.382684
0.906127 0.19509 0.37533
0.815493 0.19509 0.544895
0.83147 0 0.55557
0.906127 -0.19509 0.37533
0.92388 0 0.382684
0.83147 0 0.55557
0.815493 -0.19509 0.544895
0.353554 0.92388 0.146447
0.18024 0.980785 0.074658
0.162212 0.980785 0.108386
0.31819 0.92388 0.212608
0.853554 -0.382683 0.353553
0.906127 -0.19509 0.37533
0.815493 -0.19509 0.544895
0.768178 -0.382683 0.51328
0.51328 0.83147 0.212608
0.353554 0.92388 0.146447
0.31819 0.92388 0.212608
0.46194 0.83147 0.308658
0.162212 -0.980785 0.108386
0.31819 -0.92388 0.212607
0.270598 -0.92388 0.270598
0.13795 -0.980785 0.13795
0.83147 0 0.55557
0.815493 0.19509 0.544895
0.69352 0.19509 0.69352
0.707107 0 0.707107
0.815493 -0.19509 0.544895
0.83147 0 0.55557
0.707107 0 0.707107
0.69352 -0.19509 0.69352
0.31819 0.92388 0.212608
0.162212 0.980785 0.108386
0.13795 0.980785 0.13795
0.270598 0.92388 0.270598
0.768178 -0.382683 0.51328
0.815493 -0.19509 0.544895
0.69352 -0.19509 0.69352
0.653282 -0.382683 0.653281
0.46194 0.83147 0.308658
0.31819 0.92388 0.212608
0.270598 0.92388 0.270598
0.392848 0.83147 0.392848
0.691342 -0.55557 0.46194
0.768178 -0.382683 0.51328
0.653282 -0.382683 0.653281
0.587938 -0.55557 0.587938
0.587938 0.707107 0.392847
0.46194 0.83147 0.308658
0.392848 0.83147 0.392848
0.5 0.707107 0.5
0.587938 -0.707107 0.392847
0.691342 -0.55557 0.46194
0.587938 -0.55557 0.587938
0.5 -0.707107 0.5
0.691342 0.55557 0.46194
0.587938 0.707107 0.392847
0.5 0.707107 0.5
0.587938 0.55557 0.587938
0.46194 -0.83147 0.308658
0.587938 -0.707107 0.392847
0.5 -0.707107 0.5
0.392848 -0.83147 0.392847
0.768178 0.382683 0.51328
0.691342 0.55557 0.46194
0.587938 0.55557 0.587938
0.653282 0.382683 0.653281
0.31819 -0.92388 0.212607
0.46194 -0.83147 0.308658
0.392848 -0.83147 0.392847
0.270598 -0.92388 0.270598
0.815493 0.19509 0.544895
0.768178 0.382683 0.51328
0.653282 0.382683 0.653281
0.69352 0.19509 0.69352
0.5 0.707107 0.5
0.392848 0.83147 0.392848
0.308659 0.83147 0.46194
0.392848 0.707107 0.587938
0.5 -0.707107 0.5
0.587938 -0.55557 0.587938
0.46194 -0.55557 0.691342
0.392848 -0.707107 0.587938
0.587938 0.55557 0.587938
0.5 0.707107 0.5
0.392848 0.707107 0.587938
0.46194 0.55557 0.691342
0.392848 -0.83147 0.392847
0.5 -0.707107 0.5
0.392848 -0.707107 0.587938
0.308658 -0.83147 0.46194
0.653282 0.382683 0.653281
0.587938 0.55557 0.587938
0.46194 0.55557 0.691342
0.51328 0.382683 0.768178
0.270598 -0.92388 0.270598
0.392848 -0.83147 0.392847
0.308658 -0.83147 0.46194
0.212608 -0.92388 0.31819
0.69352 0.19509 0.69352
0.653282 0.382683 0.653281
0.51328 0.382683 0.768178
0.544895 0.19509 0.815493
0.13795 -0.980785 0.13795
0.270598 -0.92388 0.270598
0.212608 -0.92388 0.31819
0.108387 -0.980785 0.162212
0.707107 0 0.707107
0.69352 0.19509 0.69352
0.544895 0.19509 0.815493
0.55557 0 0.83147
0.69352 -0.19509 0.69352
0.707107 0 0.707107
0.55557 0 0.83147
0.544895 -0.19509 0.815493
0.270598 0.92388 0.270598
0.13795 0.980785 0.13795
0.108387 0.980785 0.162212
0.212608 0.92388 0.31819
0.653282 -0.382683 0.653281
0.69352 -0.19509 0.69352
0.544895 -0.19509 0.815493
0.51328 -0.382683 0.768178
0.392848 0.83147 0.392848
0.270598 0.92388 0.270598
0.212608 0.92388 0.31819
0.308659 0.83147 0.46194
0.587938 -0.55557 0.587938
0.653282 -0.382683 0.653281
0.51328 -0.382683 0.768178
0.46194 -0.55557 0.691342
0.55557 0 0.83147
0.544895 0.19509 0.815493
0.37533 0.19509 0.906127
0.382684 0 0.92388
0.544895 -0.19509 0.815493
0.55557 0 0.83147
0.382684 0 0.92388
0.37533 -0.19509 0.906127
0.212608 0.92388 0.31819
0.108387 0.980785 0.162212
0.074658 0.980785 0.18024
0.146447 0.92388 0.353553
0.51328 -0.382683 0.768178
0.544895 -0.19509 0.815493
0.37533 -0.19509 0.906127
0.353554 -0.382683 0.853553
0.308659 0.83147 0.46194
0.212608 0.92388 0.31819
0.146447 0.92388 0.353553
0.212608 0.83147 0.51328
0.46194 -0.55557 0.691342
0.51328 -0.382683 0.768178
0.353554 -0.382683 0.853553
0.31819 -0.55557 0.768177
0.392848 0.707107 0.587938
0.308659 0.83147 0.46194
0.212608 0.83147 0.51328
0.270598 0.707107 0.653281
0.392848 -0.707107 0.587938
0.46194 -0.55557 0.691342
0.31819 -0.55557 0.768177
0.270598 -0.707107 0.653281
0.46194 0.55557 0.691342
0.392848 0.707107 0.587938
0.270598 0.707107 0.653281
0.31819 0.55557 0.768177
0.308658 -0.83147 0.46194
0.392848 -0.707107 0.587938
0.270598 -0.707107 0.653281
0.212608 -0.83147 0.51328
0.51328 0.382683 0.768178
0.46194 0.55557 0.691342
0.31819 0.55557 0.768177
0.353554 0.382683 0.853553
0.212608 -0.92388 0.31819
0.308658 -0.83147 0.46194
0.212608 -0.83147 0.51328
0.146447 -0.92388 0.353553
0.544895 0.19509 0.815493
0.51328 0.382683 0.768178
0.353554 0.382683 0.853553
0.37533 0.19509 0.906127
0.108387 -0.980785 0.162212
0.212608 -0.92388 0.31819
0.146447 -0.92388 0.353553
0.074658 -0.980785 0.18024
0.270598 -0.707107 0.653281
0.31819 -0.55557 0.768177
0.162212 -0.55557 0.815493
0.13795 -0.707107 0.69352
0.31819 0.55557 0.768177
0.270598 0.707107 0.653281
0.13795 0.707107 0.69352
0.162212 0.55557 0.815493
0.212608 -0.83147 0.51328
0.270598 -0.707107 0.653281
0.13795 -0.707107 0.69352
0.108387 -0.83147 0.544895
0.353554 0.382683 0.853553
0.31819 0.55557 0.768177
0.162212 0.55557 0.815493
0.18024 0.382683 0.906127
0.146447 -0.92388 0.353553
0.212608 -0.83147 0.51328
0.108387 -0.83147 0.544895
0.074658 -0.92388 0.37533
0.37533 0.19509 0.906127
0.353554 0.382683 0.853553
0.18024 0.382683 0.906127
0.191342 0.19509 0.961939
0.074658 -0.980785 0.18024
0.146447 -0.92388 0.353553
0.074658 -0.92388 0.37533
0.038061 -0.980785 0.191342
0.382684 0 0.92388
0.37533 0.19509 0.906127
0.191342 0.19509 0.961939
0.19509 0 0.980785
0.37533 -0.19509 0.906127
0.382684 0 0.92388
0.19509 0 0.980785
0.191342 -0.19509 0.961939
0.146447 0.92388 0.353553
0.074658 0.980785 0.18024
0.038061 0.980785 0.191342
0.074658 0.92388 0.37533
0.353554 -0.382683 0.853553
0.37533 -0.19509 0.906127
0.191342 -0.19509 0.961939
0.18024 -0.382683 0.906127
0.212608 0.83147 0.51328
0.146447 0.92388 0.353553
0.074658 0.92388 0.37533
0.108387 0.83147 0.544895
0.31819 -0.55557 0.768177
0.353554 -0.382683 0.853553
0.18024 -0.382683 0.906127
0.162212 -0.55557 0.815493
0.270598 0.707107 0.653281
0.212608 0.83147 0.51328
0.108387 0.83147 0.544895
0.13795 0.707107 0.69352
0.191342 -0.19509 0.961939
0.19509 0 0.980785
0 0 1
0 -0.19509 0.980785
0.074658 0.92388 0.37533
0.038061 0.980785 0.191342
0 0.980785 0.19509
0 0.92388 0.382683
0.18024 -0.382683 0.906127
0.191342 -0.19509 0.961939
0 -0.19509 0.980785
0 -0.382683 0.923879
0.108387 0.83147 0.544895
0.074658 0.92388 0.37533
0 0.92388 0.382683
0 0.83147 0.55557
0.162212 -0.55557 0.815493
0.18024 -0.382683 0.906127
0 -0.382683 0.923879
0 -0.55557 0.831469
0.13795 0.707107 0.69352
0.108387 0.83147 0.544895
0 0.83147 0.55557
0 0.707107 0.707107
0.13795 -0.707107 0.69352
0.162212 -0.55557 0.815493
0 -0.55557 0.831469
0 -0.707107 0.707107
0.162212 0.55557 0.815493
0.13795 0.707107 0.69352
0 0.707107 0.707107
0 0.55557 0.831469
0.108387 -0.83147 0.544895
0.13795 -0.707107 0.69352
0 -0.707107 0.707107
0 -0.83147 0.55557
0.18024 0.382683 0.906127
0.162212 0.55557 0.815493
0 0.55557 0.831469
0 0.382683 0.923879
0.074658 -0.92388 0.37533
0.108387 -0.83147 0.544895
0 -0.83147 0.55557
0 -0.92388 0.382683
0.191342 0.19509 0.961939
0.18024 0.382683 0.906127
0 0.382683 0.923879
0 0.19509 0.980785
0.038061 -0.980785 0.191342
0.074658 -0.92388 0.37533
0 -0.92388 0.382683
0 -0.980785 0.19509
0.19509 0 0.980785
0.191342 0.19509 0.961939
0 0.19509 0.980785
0 0 1
0 -0.83147 0.55557
0 -0.707107 0.707107
-0.137949 -0.707107 0.69352
-0.108386 -0.83147 0.544895
0 0.382683 0.923879
0 0.55557 0.831469
-0.162211 0.55557 0.815493
-0.18024 0.382683 0.906127
0 -0.92388 0.382683
0 -0.83147 0.55557
-0.108386 -0.83147 0.544895
-0.074658 -0.92388 0.37533
0 0.19509 0.980785
0 0.382683 0.923879
-0.18024 0.382683 0.906127
-0.191342 0.19509 0.961939
0 -0.980785 0.19509
0 -0.92388 0.382683
-0.074658 -0.92388 0.37533
-0.03806 -0.980785 0.191342
0 0 1
0 0.19509 0.980785
-0.191342 0.19509 0.961939
-0.19509 0 0.980785
0 -0.19509 0.980785
0 0 1
-0.19509 0 0.980785
-0.191342 -0.19509 0.961939
0 0.92388 0.382683
0 0.980785 0.19509
-0.03806 0.980785 0.191342
-0.074658 0.92388 0.37533
0 -0.382683 0.923879
0 -0.19509 0.980785
-0.191342 -0.19509 0.961939
-0.18024 -0.382683 0.906127
0 0.83147 0.55557
0 0.92388 0.382683
-0.074658 0.92388 0.37533
-0.108386 0.83147 0.544895
0 -0.55557 0.831469
0 -0.382683 0.923879
-0.18024 -0.382683 0.906127
-0.162211 -0.55557 0.815493
0 0.707107 0.707107
0 0.83147 0.55557
-0.108386 0.83147 0.544895
-0.137949 0.707107 0.69352
0 -0.707107 0.707107
0 -0.55557 0.831469
-0.162211 -0.55557 0.815493
-0.137949 -0.707107 0.69352
0 0.55557 0.831469
0 0.707107 0.707107
-0.137949 0.707107 0.69352
-0.162211 0.55557 0.815493
-0.074658 0.92388 0.37533
-0.03806 0.980785 0.191342
-0.074658 0.980785 0.18024
-0.146446 0.92388 0.353553
-0.18024 -0.382683 0.906127
-0.191342 -0.19509 0.961939
-0.37533 -0.19509 0.906127
-0.353553 -0.382683 0.853553
-0.108386 0.83147 0.544895
-0.074658 0.92388 0.37533
-0.146446 0.92388 0.353553
-0.212607 0.83147 0.51328
-0.162211 -0.55557 0.815493
-0.18024 -0.382683 0.906127
-0.353553 -0.382683 0.853553
-0.318189 -0.55557 0.768177
-0.137949 0.707107 0.69352
-0.108386 0.83147 0.544895
-0.212607 0.83147 0.51328
-0.270598 0.707107 0.653281
-0.137949 -0.707107 0.69352
-0.162211 -0.55557 0.815493
-0.318189 -0.55557 0.768177
-0.270598 -0.707107 0.653281
-0.162211 0.55557 0.815493
-0.137949 0.707107 0.69352
-0.270598 0.707107 0.653281
-0.318189 0.55557 0.768177
-0.108386 -0.83147 0.544895
-0.137949 -0.707107 0.69352
-0.270598 -0.707107 0.653281
-0.212607 -0.83147 0.51328
-0.18024 0.382683 0.906127
-0.162211 0.55557 0.815493
-0.318189 0.55557 0.768177
-0.353553 0.382683 0.853553
-0.074658 -0.92388 0.37533
-0.108386 -0.83147 0.544895
-0.212607 -0.83147 0.51328
-0.146446 -0.92388 0.353553
-0.191342 0.19509 0.961939
-0.18024 0.382683 0.906127
-0.353553 0.382683 0.853553
-0.37533 0.19509 0.906127
-0.03806 -0.980785 0.191342
-0.074658 -0.92388 0.37533
-0.146446 -0.92388 0.353553
-0.074657 -0.980785 0.18024
-0.19509 0 0.980785
-0.191342 0.19509 0.961939
-0.37533 0.19509 0.906127
-0.382683 0 0.923879
-0.191342 -0.19509 0.961939
-0.19509 0 0.980785
-0.382683 0 0.923879
-0.37533 -0.19509 0.906127
-0.353553 0.382683 0.853553
-0.318189 0.55557 0.768177
-0.461939 0.55557 0.691341
-0.51328 0.382683 0.768178
-0.146446 -0.92388 0.353553
-0.212607 -0.83147 0.51328
-0.308658 -0.83147 0.46194
-0.212607 -0.92388 0.318189
-0.37533 0.19509 0.906127
-0.353553 0.382683 0.853553
-0.51328 0.382683 0.768178
-0.544895 0.19509 0.815493
-0.074657 -0.980785 0.18024
-0.146446 -0.92388 0.353553
-0.212607 -0.92388 0.318189
-0.108386 -0.980785 0.162212
-0.382683 0 0.923879
-0.37533 0.19509 0.906127
-0.544895 0.19509 0.815493
-0.55557 0 0.831469
-0.37533 -0.19509 0.906127
-0.382683 0 0.923879
-0.55557 0 0.831469
-0.544895 -0.19509 0.815493
-0.146446 0.92388 0.353553
-0.074658 0.980785 0.18024
-0.108386 0.980785 0.162212
-0.212607 0.92388 0.31819
-0.353553 -0.382683 0.853553
-0.37533 -0.19509 0.906127
-0.544895 -0.19509 0.815493
-0.51328 -0.382683 0.768178
-0.212607 0.83147 0.51328
-0.146446 0.92388 0.353553
-0.212607 0.92388 0.31819
-0.308658 0.83147 0.46194
-0.318189 -0.55557 0.768177
-0.353553 -0.382683 0.853553
-0.51328 -0.382683 0.768178
-0.461939 -0.55557 0.691341
-0.270598 0.707107 0.653281
-0.212607 0.83147 0.51328
-0.308658 0.83147 0.46194
-0.392847 0.707107 0.587938
-0.270598 -0.707107 0.653281
-0.318189 -0.55557 0.768177
-0.461939 -0.55557 0.691341
-0.392847 -0.707107 0.587938
-0.318189 0.55557 0.768177
-0.270598 0.707107 0.653281
-0.392847 0.707107 0.587938
-0.461939 0.55557 0.691341
-0.212607 -0.83147 0.51328
-0.270598 -0.707107 0.653281
-0.392847 -0.707107 0.587938
-0.308658 -0.83147 0.46194
-0.51328 -0.382683 0.768178
-0.544895 -0.19509 0.815493
-0.693519 -0.19509 0.693519
-0.653281 -0.382683 0.653281
-0.308658 0.83147 0.46194
-0.212607 0.92388 0.31819
-0.270598 0.92388 0.270598
-0.392847 0.83147 0.392847
-0.461939 -0.55557 0.691341
-0.51328 -0.382683 0.768178
-0.653281 -0.382683 0.653281
-0.587937 -0.55557 0.587937
-0.392847 0.707107 0.587938
-0.308658 0.83147 0.46194
-0.392847 0.83147 0.392847
-0.5 0.707107 0.5
-0.392847 -0.707107 0.587938
-0.461939 -0.55557 0.691341
-0.587937 -0.55557 0.587937
-0.5 -0.707107 0.5
-0.461939 0.55557 0.691341
-0.392847 0.707107 0.587938
-0.5 0.707107 0.5
-0.587937 0.55557 0.587937
-0.308658 -0.83147 0.46194
-0.392847 -0.707107 0.587938
-0.5 -0.707107 0.5
-0.392847 -0.83147 0.392847
-0.51328 0.382683 0.768178
-0.461939 0.55557 0.691341
-0.587937 0.55557 0.587937
-0.653281 0.382683 0.653281
-0.212607 -0.92388 0.318189
-0.308658 -0.83147 0.46194
-0.392847 -0.83147 0.392847
-0.270598 -0.92388 0.270598
-0.544895 0.19509 0.815493
-0.51328 0.382683 0.768178
-0.653281 0.382683 0.653281
-0.693519 0.19509 0.693519
-0.108386 -0.980785 0.162212
-0.212607 -0.92388 0.318189
-0.270598 -0.92388 0.270598
-0.137949 -0.980785 0.13795
-0.55557 0 0.831469
-0.544895 0.19509 0.815493
-0.693519 0.19509 0.693519
-0.707106 0 0.707106
-0.544895 -0.19509 0.815493
-0.55557 0 0.831469
-0.707106 0 0.707106
-0.693519 -0.19509 0.693519
-0.212607 0.92388 0.31819
-0.108386 0.980785 0.162212
-0.137949 0.980785 0.13795
-0.270598 0.92388 0.270598
-0.270598 -0.92388 0.270598
-0.392847 -0.83147 0.392847
-0.461939 -0.83147 0.308658
-0.318189 -0.92388 0.212607
-0.693519 0.19509 0.693519
-0.653281 0.382683 0.653281
-0.768177 0.382683 0.51328
-0.815492 0.19509 0.544895
-0.137949 -0.980785 0.13795
-0.270598 -0.92388 0.270598
-0.318189 -0.92388 0.212607
-0.162211 -0.980785 0.108386
-0.707106 0 0.707106
-0.693519 0.19509 0.693519
-0.815492 0.19509 0.544895
-0.831469 0 0.55557
-0.693519 -0.19509 0.693519
-0.707106 0 0.707106
-0.831469 0 0.55557
-0.815492 -0.19509 0.544895
-0.270598 0.92388 0.270598
-0.137949 0.980785 0.13795
-0.162211 0.980785 0.108386
-0.318189 0.92388 0.212607
-0.653281 -0.382683 0.653281
-0.693519 -0.19509 0.693519
-0.815492 -0.19509 0.544895
-0.768177 -0.382683 0.51328
-0.392847 0.83147 0.392847
-0.270598 0.92388 0.270598
-0.318189 0.92388 0.212607
-0.461939 0.83147 0.308658
-0.587937 -0.55557 0.587937
-0.653281 -0.382683 0.653281
-0.768177 -0.382683 0.51328
-0.691341 -0.55557 0.461939
-0.5 0.707107 0.5
-0.392847 0.83147 0.392847
-0.461939 0.83147 0.308658
-0.587937 0.707107 0.392847
-0.5 -0.707107 0.5
-0.587937 -0.55557 0.587937
-0.691341 -0.55557 0.461939
-0.587937 -0.707107 0.392847
-0.587937 0.55557 0.587937
-0.5 0.707107 0.5
-0.587937 0.707107 0.392847
-0.691341 0.55557 0.461939
-0.392847 -0.83147 0.392847
-0.5 -0.707107 0.5
-0.587937 -0.707107 0.392847
-0.461939 -0.83147 0.308658
-0.653281 0.382683 0.653281
-0.587937 0.55557 0.587937
-0.691341 0.55557 0.461939
-0.768177 0.382683 0.51328
-0.461939 0.83147 0.308658
-0.318189 0.92388 0.212607
-0.353553 0.92388 0.146447
-0.51328 0.83147 0.212607
-0.691341 -0.55557 0.461939
-0.768177 -0.382683 0.51328
-0.853553 -0.382683 0.353553
-0.768177 -0.55557 0.318189
-0.587937 0.707107 0.392847
-0.461939 0.83147 0.308658
-0.51328 0.83147 0.212607
-0.653281 0.707107 0.270598
-0.587937 -0.707107 0.392847
-0.691341 -0.55557 0.461939
-0.768177 -0.55557 0.318189
-0.653281 -0.707107 0.270598
-0.691341 0.55557 0.461939
-0.587937 0.707107 0.392847
-0.653281 0.707107 0.270598
-0.768177 0.55557 0.318189
-0.461939 -0.83147 0.308658
-0.587937 -0.707107 0.392847
-0.653281 -0.707107 0.270598
-0.513279 -0.83147 0.212607
-0.768177 0.382683 0.51328
-0.691341 0.55557 0.461939
-0.768177 0.55557 0.318189
-0.853553 0.382683 0.353553
-0.318189 -0.92388 0.212607
-0.461939 -0.83147 0.308658
-0.513279 -0.83147 0.212607
-0.353553 -0.92388 0.146446
-0.815492 0.19509 0.544895
-0.768177 0.382683 0.51328
-0.853553 0.382683 0.353553
-0.906127 0.19509 0.37533
-0.162211 -0.980785 0.108386
-0.318189 -0.92388 0.212607
-0.353553 -0.92388 0.146446
-0.18024 -0.980785 0.074658
-0.831469 0 0.55557
-0.815492 0.19509 0.544895
-0.906127 0.19509 0.37533
-0.923879 0 0.382683
-0.815492 -0.19509 0.544895
-0.831469 0 0.55557
-0.923879 0 0.382683
-0.906127 -0.19509 0.37533
-0.318189 0.92388 0.212607
-0.162211 0.980785 0.108386
-0.18024 0.980785 0.074658
-0.353553 0.92388 0.146447
-0.768177 -0.382683 0.51328
-0.815492 -0.19509 0.544895
-0.906127 -0.19509 0.37533
-0.853553 -0.382683 0.353553
-0.906127 0.19509 0.37533
-0.853553 0.382683 0.353553
-0.906127 0.382683 0.18024
-0.961939 0.19509 0.191341
-0.18024 -0.980785 0.074658
-0.353553 -0.92388 0.146446
-0.37533 -0.92388 0.074658
-0.191341 -0.980785 0.03806
-0.923879 0 0.382683
-0.906127 0.19509 0.37533
-0.961939 0.19509 0.191341
-0.980785 0 0.19509
-0.906127 -0.19509 0.37533
-0.923879 0 0.382683
-0.980785 0 0.19509
-0.961939 -0.19509 0.191341
-0.353553 0.92388 0.146447
-0.18024 0.980785 0.074658
-0.191342 0.980785 0.03806
-0.37533 0.92388 0.074658
-0.853553 -0.382683 0.353553
-0.906127 -0.19509 0.37533
-0.961939 -0.19509 0.191341
-0.906127 -0.382683 0.18024
-0.51328 0.83147 0.212607
-0.353553 0.92388 0.146447
-0.37533 0.92388 0.074658
-0.544895 0.83147 0.108386
-0.768177 -0.55557 0.318189
-0.853553 -0.382683 0.353553
-0.906127 -0.382683 0.18024
-0.815492 -0.55557 0.162211
-0.653281 0.707107 0.270598
-0.51328 0.83147 0.212607
-0.544895 0.83147 0.108386
-0.69352 0.707107 0.13795
-0.653281 -0.707107 0.270598
-0.768177 -0.55557 0.318189
-0.815492 -0.55557 0.162211
-0.69352 -0.707107 0.13795
-0.768177 0.55557 0.318189
-0.653281 0.707107 0.270598
-0.69352 0.707107 0.13795
-0.815492 0.55557 0.162211
-0.513279 -0.83147 0.212607
-0.653281 -0.707107 0.270598
-0.69352 -0.707107 0.13795
-0.544895 -0.83147 0.108386
-0.853553 0.382683 0.353553
-0.768177 0.55557 0.318189
-0.815492 0.55557 0.162211
-0.906127 0.382683 0.18024
-0.353553 -0.92388 0.146446
-0.513279 -0.83147 0.212607
-0.544895 -0.83147 0.108386
-0.37533 -0.92388 0.074658
-0.19509 0.980785 0
0 1 0
-0.191342 0.980785 -0.03806
0 -1 0
-0.19509 -0.980785 0
-0.191341 -0.980785 -0.03806
-0.191342 0.980785 -0.03806
0 1 0
-0.18024 0.980785 -0.074658
0 -1 0
-0.191341 -0.980785 -0.03806
-0.18024 -0.980785 -0.074658
-0.18024 0.980785 -0.074658
0 1 0
-0.162212 0.980785 -0.108387
0 -1 0
-0.18024 -0.980785 -0.074658
-0.162211 -0.980785 -0.108386
-0.162212 0.980785 -0.108387
0 1 0
-0.13795 0.980785 -0.13795
0 -1 0
-0.162211 -0.980785 -0.108386
-0.137949 -0.980785 -0.13795
-0.13795 0.980785 -0.13795
0 1 0
-0.108386 0.980785 -0.162212
0 -1 0
-0.137949 -0.980785 -0.13795
-0.108386 -0.980785 -0.162212
-0.108386 0.980785 -0.162212
0 1 0
-0.074658 0.980785 -0.18024
0 -1 0
-0.108386 -0.980785 -0.162212
-0.074658 -0.980785 -0.18024
-0.074658 0.980785 -0.18024
0 1 0
-0.03806 0.980785 -0.191342
0 -1 0
-0.074658 -0.980785 -0.18024
-0.03806 -0.980785 -0.191342
-0.03806 0.980785 -0.191342
0 1 0
0 0.980785 -0.195091
0 -1 0
-0.03806 -0.980785 -0.191342
0 -0.980785 -0.19509
0 0.980785 -0.195091
0 1 0
0.038061 0.980785 -0.191342
0 -1 0
0 -0.980785 -0.19509
0.038061 -0.980785 -0.191342
0.038061 0.980785 -0.191342
0 1 0
0.074658 0.980785 -0.18024
0 -1 0
0.038061 -0.980785 -0.191342
0.074658 -0.980785 -0.18024
0.074658 0.980785 -0.18024
0 1 0
0.108387 0.980785 -0.162212
0 -1 0
0.074658 -0.980785 -0.18024
0.108387 -0.980785 -0.162212
0.108387 0.980785 -0.162212
0 1 0
0.13795 0.980785 -0.13795
0 -1 0
0.108387 -0.980785 -0.162212
0.13795 -0.980785 -0.13795
0.13795 0.980785 -0.13795
0 1 0
0.162212 0.980785 -0.108386
0 -1 0
0.13795 -0.980785 -0.13795
0.162212 -0.980785 -0.108386
0.162212 0.980785 -0.108386
0 1 0
0.18024 0.980785 -0.074658
0 -1 0
0.162212 -0.980785 -0.108386
0.18024 -0.980785 -0.074658
0.18024 0.980785 -0.074658
0 1 0
0.191342 0.980785 -0.03806
0 -1 0
0.18024 -0.980785 -0.074658
0.191342 -0.980785 -0.03806
0.191342 0.980785 -0.03806
0 1 0
0.195091 0.980785 0
0 -1 0
0.191342 -0.980785 -0.03806
0.195091 -0.980785 -0
0.195091 0.980785 0
0 1 0
0.191342 0.980785 0.03806
0 -1 0
0.195091 -0.980785 -0
0.191342 -0.980785 0.03806
0.191342 0.980785 0.03806
0 1 0
0.18024 0.980785 0.074658
0 -1 0
0.191342 -0.980785 0.03806
0.18024 -0.980785 0.074658
0.18024 0.980785 0.074658
0 1 0
0.162212 0.980785 0.108386
0 -1 0
0.18024 -0.980785 0.074658
0.162212 -0.980785 0.108386
0.162212 0.980785 0.108386
0 1 0
0.13795 0.980785 0.13795
0 -1 0
0.162212 -0.980785 0.108386
0.13795 -0.980785 0.13795
0.13795 0.980785 0.13795
0 1 0
0.108387 0.980785 0.162212
0 -1 0
0.13795 -0.980785 0.13795
0.108387 -0.980785 0.162212
0.108387 0.980785 0.162212
0 1 0
0.074658 0.980785 0.18024
0 -1 0
0.108387 -0.980785 0.162212
0.074658 -0.980785 0.18024
0.074658 0.980785 0.18024
0 1 0
0.038061 0.980785 0.191342
0 -1 0
0.074658 -0.980785 0.18024
0.038061 -0.980785 0.191342
0 -1 0
0.038061 -0.980785 0.191342
0 -0.980785 0.19509
0.038061 0.980785 0.191342
0 1 0
0 0.980785 0.19509
0 0.980785 0.19509
0 1 0
-0.03806 0.980785 0.191342
0 -1 0
0 -0.980785 0.19509
-0.03806 -0.980785 0.191342
-0.03806 0.980785 0.191342
0 1 0
-0.074658 0.980785 0.18024
0 -1 0
-0.03806 -0.980785 0.191342
-0.074657 -0.980785 0.18024
-0.074658 0.980785 0.18024
0 1 0
-0.108386 0.980785 0.162212
0 -1 0
-0.074657 -0.980785 0.18024
-0.108386 -0.980785 0.162212
-0.108386 0.980785 0.162212
0 1 0
-0.137949 0.980785 0.13795
0 -1 0
-0.108386 -0.980785 0.162212
-0.137949 -0.980785 0.13795
-0.137949 0.980785 0.13795
0 1 0
-0.162211 0.980785 0.108386
0 -1 0
-0.137949 -0.980785 0.13795
-0.162211 -0.980785 0.108386
-0.162211 0.980785 0.108386
0 1 0
-0.18024 0.980785 0.074658
0 -1 0
-0.162211 -0.980785 0.108386
-0.18024 -0.980785 0.074658
-0.18024 0.980785 0.074658
0 1 0
-0.191342 0.980785 0.03806
0 -1 0
-0.18024 -0.980785 0.074658
-0.191341 -0.980785 0.03806
-0.815492 -0.55557 0.162211
-0.906127 -0.382683 0.18024
-0.92388 -0.382683 0
-0.83147 -0.55557 0
-0.69352 0.707107 0.13795
-0.544895 0.83147 0.108386
-0.55557 0.83147 0
-0.707107 0.707107 0
-0.69352 -0.707107 0.13795
-0.815492 -0.55557 0.162211
-0.83147 -0.55557 0
-0.707107 -0.707107 0
-0.815492 0.55557 0.162211
-0.69352 0.707107 0.13795
-0.707107 0.707107 0
-0.83147 0.55557 0
-0.544895 -0.83147 0.108386
-0.69352 -0.707107 0.13795
-0.707107 -0.707107 0
-0.55557 -0.83147 0
-0.906127 0.382683 0.18024
-0.815492 0.55557 0.162211
-0.83147 0.55557 0
-0.92388 0.382683 0
-0.37533 -0.92388 0.074658
-0.544895 -0.83147 0.108386
-0.55557 -0.83147 0
-0.382683 -0.92388 0
-0.961939 0.19509 0.191341
-0.906127 0.382683 0.18024
-0.92388 0.382683 0
-0.980785 0.19509 0
-0.191341 -0.980785 0.03806
-0.37533 -0.92388 0.074658
-0.382683 -0.92388 0
-0.19509 -0.980785 0
-0.980785 0 0.19509
-0.961939 0.19509 0.191341
-0.980785 0.19509 0
-1 0 0
-0.191342 0.980785 0.03806
0 1 0
-0.19509 0.980785 0
0 -1 0
-0.191341 -0.980785 0.03806
-0.19509 -0.980785 0
-0.961939 -0.19509 0.191341
-0.980785 0 0.19509
-1 0 0
-0.980785 -0.19509 0
-0.37533 0.92388 0.074658
-0.191342 0.980785 0.03806
-0.19509 0.980785 0
-0.382683 0.92388 0
-0.906127 -0.382683 0.18024
-0.961939 -0.19509 0.191341
-0.980785 -0.19509 0
-0.92388 -0.382683 0
-0.544895 0.83147 0.108386
-0.37533 0.92388 0.074658
-0.382683 0.92388 0
-0.55557 0.83147 0
3  0 1 2
3  0 2 3
3  4 5 6
3  4 6 7
3  8 9 10
3  8 10 11
3  12 13 14
3  12 14 15
3  16 17 18
3  16 18 19
3  20 21 22
3  20 22 23
3  24 25 26
3  24 26 27
3  28 29 30
3  28 30 31
3  32 33 34
3  32 34 35
3  36 37 38
3  36 38 39
3  40 41 42
3  40 42 43
3  44 45 46
3  44 46 47
3  48 49 50
3  48 50 51
3  52 53 54
3  52 54 55
3  56 57 58
3  56 58 59
3  60 61 62
3  60 62 63
3  64 65 66
3  64 66 67
3  68 69 70
3  68 70 71
3  72 73 74
3  72 74 75
3  76 77 78
3  76 78 79
3  80 81 82
3  80 82 83
3  84 85 86
3  84 86 87
3  88 89 90
3  88 90 91
3  92 93 94
3  92 94 95
3  96 97 98
3  96 98 99
3  100 101 102
3  100 102 103
3  104 105 106
3  104 106 107
3  108 109 110
3  108 110 111
3  112 113 114
3  112 114 115
3  116 117 118
3  116 118 119
3  120 121 122
3  120 122 123
3  124 125 126
3  124 126 127
3  128 129 130
3  128 130 131
3  132 133 134
3  132 134 135
3  136 137 138
3  136 138 139
3  140 141 142
3  140 142 143
3  144 145 146
3  144 146 147
3  148 149 150
3  148 150 151
3  152 153 154
3  152 154 155
3  156 157 158
3  156 158 159
3  160 161 162
3  160 162 163
3  164 165 166
3  164 166 167
3  168 169 170
3  168 170 171
3  172 173 174
3  172 174 175
3  176 177 178
3  176 178 179
3  180 181 182
3  180 182 183
3  184 185 186
3  184 186 187
3  188 189 190
3  188 190 191
3  192 193 194
3  192 194 195
3  196 197 198
3  196 198 199
3  200 201 202
3  200 202 203
3  204 205 206
3  204 206 207
3  208 209 210
3  208 210 211
3  212 213 214
3  212 214 215
3  216 217 218
3  216 218 219
3  220 221 222
3  220 222 223
3  224 225 226
3  224 226 227
3  228 229 230
3  228 230 231
3  232 233 234
3  232 234 235
3  236 237 238
3  236 238 239
3  240 241 242
3  240 242 243
3  244 245 246
3  244 246 247
3  248 249 250
3  248 250 251
3  252 253 254
3  252 254 255
3  256 257 258
3  256 258 259
3  260 261 262
3  260 262 263
3  264 265 266
3  264 266 267
3  268 269 270
3  268 270 271
3  272 273 274
3  272 274 275
3  276 277 278
3  276 278 279
3  280 281 282
3  280 282 283
3  284 285 286
3  284 286 287
3  288 289 290
3  288 290 291
3  292 293 294
3  292 294 295
3  296 297 298
3  296 298 299
3  300 301 302
3  300 302 303
3  304 305 306
3  304 306 307
3  308 309 310
3  308 310 311
3  312 313 314
3  312 314 315
3  316 317 318
3  316 318 319
3  320 321 322
3  320 322 323
3  324 325 326
3  324 326 327
3  328 329 330
3  328 330 331
3  332 333 334
3  332 334 335
3  336 337 338
3  336 338 339
3  340 341 342
3  340 342 343
3  344 345 346
3  344 346 347
3  348 349 350
3  348 350 351
3  352 353 354
3  352 354 355
3  356 357 358
3  356 358 359
3  360 361 362
3  360 362 363
3  364 365 366
3  364 366 367
3  368 369 370
3  368 370 371
3  372 373 374
3  372 374 375
3  376 377 378
3  376 378 379
3  380 381 382
3  380 382 383
3  384 385 386
3  384 386 387
3  388 389 390
3  388 390 391
3  392 393 394
3  392 394 395
3  396 397 398
3  396 398 399
3  400 401 402
3  400 402 403
3  404 405 406
3  404 406 407
3  408 409 410
3  408 410 411
3  412 413 414
3  412 414 415
3  416 417 418
3  416 418 419
3  420 421 422
3  420 422 423
3  424 425 426
3  424 426 427
3  428 429 430
3  428 430 431
3  432 433 434
3  432 434 435
3  436 437 438
3  436 438 439
3  440 441 442
3  440 442 443
3  444 445 446
3  444 446 447
3  448 449 450
3  448 450 451
3  452 453 454
3  452 454 455
3  456 457 458
3  456 458 459
3  460 461 462
3  460 462 463
3  464 465 466
3  464 466 467
3  468 469 470
3  468 470 471
3  472 473 474
3  472 474 475
3  476 477 478
3  476 478 479
3  480 481 482
3  480 482 483
3  484 485 486
3  484 486 487
3  488 489 490
3  488 490 491
3  492 493 494
3  492 494 495
3  496 497 498
3  496 498 499
3  500 501 502
3  500 502 503
3  504 505 506
3  504 506 507
3  508 509 510
3  508 510 511
3  512 513 514
3  512 514 515
3  516 517 518
3  516 518 519
3  520 521 522
3  520 522 523
3  524 525 526
3  524 526 527
3  528 529 530
3  528 530 531
3  532 533 534
3  532 534 535
3  536 537 538
3  536 538 539
3  540 541 542
3  540 542 543
3  544 545 546
3  544 546 547
3  548 549 550
3  548 550 551
3  552 553 554
3  552 554 555
3  556 557 558
3  556 558 559
3  560 561 562
3  560 562 563
3  564 565 566
3  564 566 567
3  568 569 570
3  568 570 571
3  572 573 574
3  572 574 575
3  576 577 578
3  576 578 579
3  580 581 582
3  580 582 583
3  584 585 586
3  584 586 587
3  588 589 590
3  588 590 591
3  592 593 594
3  592 594 595
3  596 597 598
3  596 598 599
3  600 601 602
3  600 602 603
3  604 605 606
3  604 606 607
3  608 609 610
3  608 610 611
3  612 613 614
3  612 614 615
3  616 617 618
3  616 618 619
3  620 621 622
3  620 622 623
3  624 625 626
3  624 626 627
3  628 629 630
3  628 630 631
3  632 633 634
3  632 634 635
3  636 637 638
3  636 638 639
3  640 641 642
3  640 642 643
3  644 645 646
3  644 646 647
3  648 649 650
3  648 650 651
3  652 653 654
3  652 654 655
3  656 657 658
3  656 658 659
3  660 661 662
3  660 662 663
3  664 665 666
3  664 666 667
3  668 669 670
3  668 670 671
3  672 673 674
3  672 674 675
3  676 677 678
3  676 678 679
3  680 681 682
3  680 682 683
3  684 685 686
3  684 686 687
3  688 689 690
3  688 690 691
3  692 693 694
3  692 694 695
3  696 697 698
3  696 698 699
3  700 701 702
3  700 702 703
3  704 705 706
3  704 706 707
3  708 709 710
3  708 710 711
3  712 713 714
3  712 714 715
3  716 717 718
3  716 718 719
3  720 721 722
3  720 722 723
3  724 725 726
3  724 726 727
3  728 729 730
3  728 730 731
3  732 733 734
3  732 734 735
3  736 737 738
3  736 738 739
3  740 741 742
3  740 742 743
3  744 745 746
3  744 746 747
3  748 749 750
3  748 750 751
3  752 753 754
3  752 754 755
3  756 757 758
3  756 758 759
3  760 761 762
3  760 762 763
3  764 765 766
3  764 766 767
3  768 769 770
3  768 770 771
3  772 773 774
3  772 774 775
3  776 777 778
3  776 778 779
3  780 781 782
3  780 782 783
3  784 785 786
3  784 786 787
3  788 789 790
3  788 790 791
3  792 793 794
3  792 794 795
3  796 797 798
3  796 798 799
3  800 801 802
3  800 802 803
3  804 805 806
3  804 806 807
3  808 809 810
3  808 810 811
3  812 813 814
3  812 814 815
3  816 817 818
3  816 818 819
3  820 821 822
3  820 822 823
3  824 825 826
3  824 826 827
3  828 829 830
3  828 830 831
3  832 833 834
3  832 834 835
3  836 837 838
3  836 838 839
3  840 841 842
3  840 842 843
3  844 845 846
3  844 846 847
3  848 849 850
3  848 850 851
3  852 853 854
3  852 854 855
3  856 857 858
3  856 858 859
3  860 861 862
3  860 862 863
3  864 865 866
3  864 866 867
3  868 869 870
3  868 870 871
3  872 873 874
3  872 874 875
3  876 877 878
3  876 878 879
3  880 881 882
3  880 882 883
3  884 885 886
3  884 886 887
3  888 889 890
3  888 890 891
3  892 893 894
3  892 894 895
3  896 897 898
3  896 898 899
3  900 901 902
3  900 902 903
3  904 905 906
3  904 906 907
3  908 909 910
3  908 910 911
3  912 913 914
3  912 914 915
3  916 917 918
3  916 918 919
3  920 921 922
3  920 922 923
3  924 925 926
3  924 926 927
3  928 929 930
3  928 930 931
3  932 933 934
3  932 934 935
3  936 937 938
3  936 938 939
3  940 941 942
3  940 942 943
3  944 945 946
3  944 946 947
3  948 949 950
3  948 950 951
3  952 953 954
3  952 954 955
3  956 957 958
3  956 958 959
3  960 961 962
3  960 962 963
3  964 965 966
3  964 966 967
3  968 969 970
3  968 970 971
3  972 973 974
3  972 974 975
3  976 977 978
3  976 978 979
3  980 981 982
3  980 982 983
3  984 985 986
3  984 986 987
3  988 989 990
3  988 990 991
3  992 993 994
3  992 994 995
3  996 997 998
3  996 998 999
3  1000 1001 1002
3  1000 1002 1003
3  1004 1005 1006
3  1004 1006 1007
3  1008 1009 1010
3  1008 1010 1011
3  1012 1013 1014
3  1012 1014 1015
3  1016 1017 1018
3  1016 1018 1019
3  1020 1021 1022
3  1020 1022 1023
3  1024 1025 1026
3  1024 1026 1027
3  1028 1029 1030
3  1028 1030 1031
3  1032 1033 1034
3  1032 1034 1035
3  1036 1037 1038
3  1036 1038 1039
3  1040 1041 1042
3  1040 1042 1043
3  1044 1045 1046
3  1044 1046 1047
3  1048 1049 1050
3  1048 1050 1051
3  1052 1053 1054
3  1052 1054 1055
3  1056 1057 1058
3  1056 1058 1059
3  1060 1061 1062
3  1060 1062 1063
3  1064 1065 1066
3  1064 1066 1067
3  1068 1069 1070
3  1068 1070 1071
3  1072 1073 1074
3  1072 1074 1075
3  1076 1077 1078
3  1076 1078 1079
3  1080 1081 1082
3  1080 1082 1083
3  1084 1085 1086
3  1084 1086 1087
3  1088 1089 1090
3  1088 1090 1091
3  1092 1093 1094
3  1092 1094 1095
3  1096 1097 1098
3  1096 1098 1099
3  1100 1101 1102
3  1100 1102 1103
3  1104 1105 1106
3  1104 1106 1107
3  1108 1109 1110
3  1108 1110 1111
3  1112 1113 1114
3  1112 1114 1115
3  1116 1117 1118
3  1116 1118 1119
3  1120 1121 1122
3  1120 1122 1123
3  1124 1125 1126
3  1124 1126 1127
3  1128 1129 1130
3  1128 1130 1131
3  1132 1133 1134
3  1132 1134 1135
3  1136 1137 1138
3  1136 1138 1139
3  1140 1141 1142
3  1140 1142 1143
3  1144 1145 1146
3  1144 1146 1147
3  1148 1149 1150
3  1148 1150 1151
3  1152 1153 1154
3  1152 1154 1155
3  1156 1157 1158
3  1156 1158 1159
3  1160 1161 1162
3  1160 1162 1163
3  1164 1165 1166
3  1164 1166 1167
3  1168 1169 1170
3  1168 1170 1171
3  1172 1173 1174
3  1172 1174 1175
3  1176 1177 1178
3  1176 1178 1179
3  1180 1181 1182
3  1180 1182 1183
3  1184 1185 1186
3  1184 1186 1187
3  1188 1189 1190
3  1188 1190 1191
3  1192 1193 1194
3  1192 1194 1195
3  1196 1197 1198
3  1196 1198 1199
3  1200 1201 1202
3  1200 1202 1203
3  1204 1205 1206
3  1204 1206 1207
3  1208 1209 1210
3  1208 1210 1211
3  1212 1213 1214
3  1212 1214 1215
3  1216 1217 1218
3  1216 1218 1219
3  1220 1221 1222
3  1220 1222 1223
3  1224 1225 1226
3  1224 1226 1227
3  1228 1229 1230
3  1228 1230 1231
3  1232 1233 1234
3  1232 1234 1235
3  1236 1237 1238
3  1236 1238 1239
3  1240 1241 1242
3  1240 1242 1243
3  1244 1245 1246
3  1244 1246 1247
3  1248 1249 1250
3  1248 1250 1251
3  1252 1253 1254
3  1252 1254 1255
3  1256 1257 1258
3  1256 1258 1259
3  1260 1261 1262
3  1260 1262 1263
3  1264 1265 1266
3  1264 1266 1267
3  1268 1269 1270
3  1268 1270 1271
3  1272 1273 1274
3  1272 1274 1275
3  1276 1277 1278
3  1276 1278 1279
3  1280 1281 1282
3  1280 1282 1283
3  1284 1285 1286
3  1284 1286 1287
3  1288 1289 1290
3  1288 1290 1291
3  1292 1293 1294
3  1292 1294 1295
3  1296 1297 1298
3  1296 1298 1299
3  1300 1301 1302
3  1300 1302 1303
3  1304 1305 1306
3  1304 1306 1307
3  1308 1309 1310
3  1308 1310 1311
3  1312 1313 1314
3  1312 1314 1315
3  1316 1317 1318
3  1316 1318 1319
3  1320 1321 1322
3  1320 1322 1323
3  1324 1325 1326
3  1324 1326 1327
3  1328 1329 1330
3  1328 1330 1331
3  1332 1333 1334
3  1332 1334 1335
3  1336 1337 1338
3  1336 1338 1339
3  1340 1341 1342
3  1340 1342 1343
3  1344 1345 1346
3  1344 1346 1347
3  1348 1349 1350
3  1348 1350 1351
3  1352 1353 1354
3  1352 1354 1355
3  1356 1357 1358
3  1356 1358 1359
3  1360 1361 1362
3  1360 1362 1363
3  1364 1365 1366
3  1364 1366 1367
3  1368 1369 1370
3  1368 1370 1371
3  1372 1373 1374
3  1372 1374 1375
3  1376 1377 1378
3  1376 1378 1379
3  1380 1381 1382
3  1380 1382 1383
3  1384 1385 1386
3  1384 1386 1387
3  1388 1389 1390
3  1388 1390 1391
3  1392 1393 1394
3  1392 1394 1395
3  1396 1397 1398
3  1396 1398 1399
3  1400 1401 1402
3  1400 1402 1403
3  1404 1405 1406
3  1404 1406 1407
3  1408 1409 1410
3  1408 1410 1411
3  1412 1413 1414
3  1412 1414 1415
3  1416 1417 1418
3  1416 1418 1419
3  1420 1421 1422
3  1420 1422 1423
3  1424 1425 1426
3  1424 1426 1427
3  1428 1429 1430
3  1428 1430 1431
3  1432 1433 1434
3  1432 1434 1435
3  1436 1437 1438
3  1436 1438 1439
3  1440 1441 1442
3  1440 1442 1443
3  1444 1445 1446
3  1444 1446 1447
3  1448 1449 1450
3  1448 1450 1451
3  1452 1453 1454
3  1452 1454 1455
3  1456 1457 1458
3  1456 1458 1459
3  1460 1461 1462
3  1460 1462 1463
3  1464 1465 1466
3  1464 1466 1467
3  1468 1469 1470
3  1468 1470 1471
3  1472 1473 1474
3  1472 1474 1475
3  1476 1477 1478
3  1476 1478 1479
3  1480 1481 1482
3  1480 1482 1483
3  1484 1485 1486
3  1484 1486 1487
3  1488 1489 1490
3  1488 1490 1491
3  1492 1493 1494
3  1492 1494 1495
3  1496 1497 1498
3  1496 1498 1499
3  1500 1501 1502
3  1500 1502 1503
3  1504 1505 1506
3  1504 1506 1507
3  1508 1509 1510
3  1508 1510 1511
3  1512 1513 1514
3  1512 1514 1515
3  1516 1517 1518
3  1516 1518 1519
3  1520 1521 1522
3  1520 1522 1523
3  1524 1525 1526
3  1524 1526 1527
3  1528 1529 1530
3  1528 1530 1531
3  1532 1533 1534
3  1532 1534 1535
3  1536 1537 1538
3  1536 1538 1539
3  1540 1541 1542
3  1540 1542 1543
3  1544 1545 1546
3  1544 1546 1547
3  1548 1549 1550
3  1548 1550 1551
3  1552 1553 1554
3  1552 1554 1555
3  1556 1557 1558
3  1556 1558 1559
3  1560 1561 1562
3  1560 1562 1563
3  1564 1565 1566
3  1564 1566 1567
3  1568 1569 1570
3  1568 1570 1571
3  1572 1573 1574
3  1572 1574 1575
3  1576 1577 1578
3  1576 1578 1579
3  1580 1581 1582
3  1580 1582 1583
3  1584 1585 1586
3  1584 1586 1587
3  1588 1589 1590
3  1588 1590 1591
3  1592 1593 1594
3  1592 1594 1595
3  1596 1597 1598
3  1596 1598 1599
3  1600 1601 1602
3  1600 1602 1603
3  1604 1605 1606
3  1604 1606 1607
3  1608 1609 1610
3  1608 1610 1611
3  1612 1613 1614
3  1612 1614 1615
3  1616 1617 1618
3  1616 1618 1619
3  1620 1621 1622
3  1620 1622 1623
3  1624 1625 1626
3  1624 1626 1627
3  1628 1629 1630
3  1628 1630 1631
3  1632 1633 1634
3  1632 1634 1635
3  1636 1637 1638
3  1636 1638 1639
3  1640 1641 1642
3  1640 1642 1643
3  1644 1645 1646
3  1644 1646 1647
3  1648 1649 1650
3  1648 1650 1651
3  1652 1653 1654
3  1652 1654 1655
3  1656 1657 1658
3  1656 1658 1659
3  1660 1661 1662
3  1660 1662 1663
3  1664 1665 1666
3  1664 1666 1667
3  1668 1669 1670
3  1668 1670 1671
3  1672 1673 1674
3  1672 1674 1675
3  1676 1677 1678
3  1676 1678 1679
3  1680 1681 1682
3  1680 1682 1683
3  1684 1685 1686
3  1684 1686 1687
3  1688 1689 1690
3  1688 1690 1691
3  1692 1693 1694
3  1692 1694 1695
3  1696 1697 1698
3  1696 1698 1699
3  1700 1701 1702
3  1700 1702 1703
3  1704 1705 1706
3  1704 1706 1707
3  1708 1709 1710
3  1708 1710 1711
3  1712 1713 1714
3  1712 1714 1715
3  1716 1717 1718
3  1716 1718 1719
3  1720 1721 1722
3  1720 1722 1723
3  1724 1725 1726
3  1724 1726 1727
3  1728 1729 1730
3  1728 1730 1731
3  1732 1733 1734
3  1732 1734 1735
3  1736 1737 1738
3  1739 1740 1741
3  1742 1743 1744
3  1745 1746 1747
3  1748 1749 1750
3  1751 1752 1753
3  1754 1755 1756
3  1757 1758 1759
3  1760 1761 1762
3  1763 1764 1765
3  1766 1767 1768
3  1769 1770 1771
3  1772 1773 1774
3  1775 1776 1777
3  1778 1779 1780
3  1781 1782 1783
3  1784 1785 1786
3  1787 1788 1789
3  1790 1791 1792
3  1793 1794 1795
3  1796 1797 1798
3  1799 1800 1801
3  1802 1803 1804
3  1805 1806 1807
3  1808 1809 1810
3  1811 1812 1813
3  1814 1815 1816
3  1817 1818 1819
3  1820 1821 1822
3  1823 1824 1825
3  1826 1827 1828
3  1829 1830 1831
3  1832 1833 1834
3  1835 1836 1837
3  1838 1839 1840
3  1841 1842 1843
3  1844 1845 1846
3  1847 1848 1849
3  1850 1851 1852
3  1853 1854 1855
3  1856 1857 1858
3  1859 1860 1861
3  1862 1863 1864
3  1865 1866 1867
3  1868 1869 1870
3  1871 1872 1873
3  1874 1875 1876
3  1877 1878 1879
3  1880 1881 1882
3  1883 1884 1885
3  1886 1887 1888
3  1889 1890 1891
3  1892 1893 1894
3  1895 1896 1897
3  1898 1899 1900
3  1901 1902 1903
3  1904 1905 1906
3  1907 1908 1909
3  1910 1911 1912
3  1913 1914 1915
3  1916 1917 1918
3  1919 1920 1921
3  1922 1923 1924
3  1922 1924 1925
3  1926 1927 1928
3  1926 1928 1929
3  1930 1931 1932
3  1930 1932 1933
3  1934 1935 1936
3  1934 1936 1937
3  1938 1939 1940
3  1938 1940 1941
3  1942 1943 1944
3  1942 1944 1945
3  1946 1947 1948
3  1946 1948 1949
3  1950 1951 1952
3  1950 1952 1953
3  1954 1955 1956
3  1954 1956 1957
3  1958 1959 1960
3  1958 1960 1961
3  1962 1963 1964
3  1965 1966 1967
3  1968 1969 1970
3  1968 1970 1971
3  1972 1973 1974
3  1972 1974 1975
3  1976 1977 1978
3  1976 1978 1979
3  1980 1981 1982
3  1980 1982 1983

